diplomamunka latex/nicewawe1.vcd
$date
	Sun Apr 27 14:54:20 2025
$end
$version
	ModelSim Version 2020.3
$end
$timescale
	1ps
$end
$scope module main $end
$var wire 1 ! TX $end
$var wire 1 " RX $end
$var wire 1 # CS $end
$var wire 1 $ SCL $end
$var wire 1 % SDA $end
$var wire 1 & SDO $end
$var wire 1 ' nReset $end
$var wire 1 ( Clk $end
$var wire 1 ) SendTX $end
$var wire 1 * DataToSend [7] $end
$var wire 1 + DataToSend [6] $end
$var wire 1 , DataToSend [5] $end
$var wire 1 - DataToSend [4] $end
$var wire 1 . DataToSend [3] $end
$var wire 1 / DataToSend [2] $end
$var wire 1 0 DataToSend [1] $end
$var wire 1 1 DataToSend [0] $end
$var wire 1 2 DataFromRx [7] $end
$var wire 1 3 DataFromRx [6] $end
$var wire 1 4 DataFromRx [5] $end
$var wire 1 5 DataFromRx [4] $end
$var wire 1 6 DataFromRx [3] $end
$var wire 1 7 DataFromRx [2] $end
$var wire 1 8 DataFromRx [1] $end
$var wire 1 9 DataFromRx [0] $end
$var wire 1 : TXisActive $end
$var wire 1 ; TXisDone $end
$var wire 1 < RXAck $end
$var wire 1 = RXDR $end
$var wire 1 > RXA $end
$var wire 1 ? iTX $end
$var integer 32 @ count $end
$var wire 1 A bit8SCLw $end
$var wire 1 B bit8SDAw $end
$var wire 1 C bit8SCLp $end
$var wire 1 D bit8SDAp $end
$var wire 1 E SDA_data [7] $end
$var wire 1 F SDA_data [6] $end
$var wire 1 G SDA_data [5] $end
$var wire 1 H SDA_data [4] $end
$var wire 1 I SDA_data [3] $end
$var wire 1 J SDA_data [2] $end
$var wire 1 K SDA_data [1] $end
$var wire 1 L SDA_data [0] $end
$var wire 1 M SDA_datap [7] $end
$var wire 1 N SDA_datap [6] $end
$var wire 1 O SDA_datap [5] $end
$var wire 1 P SDA_datap [4] $end
$var wire 1 Q SDA_datap [3] $end
$var wire 1 R SDA_datap [2] $end
$var wire 1 S SDA_datap [1] $end
$var wire 1 T SDA_datap [0] $end
$var wire 1 U SDO_datap [7] $end
$var wire 1 V SDO_datap [6] $end
$var wire 1 W SDO_datap [5] $end
$var wire 1 X SDO_datap [4] $end
$var wire 1 Y SDO_datap [3] $end
$var wire 1 Z SDO_datap [2] $end
$var wire 1 [ SDO_datap [1] $end
$var wire 1 \ SDO_datap [0] $end
$var wire 1 ] DoneW $end
$var wire 1 ^ DoneP $end
$var wire 1 _ csw $end
$var wire 1 ` csp $end
$var wire 1 a iCSw $end
$var wire 1 b iCSp $end
$var wire 1 c SPI_R1W0 $end
$var wire 1 d Rdyp $end
$var wire 1 e MISO_DR $end
$var wire 1 f statedelay $end
$var wire 1 y State [2] $end
$var wire 1 z State [1] $end
$var wire 1 { State [0] $end
$var wire 1 | StateHolder [2] $end
$var wire 1 } StateHolder [1] $end
$var wire 1 ~ StateHolder [0] $end
$scope module U5 $end
$var wire 1 !! iCS $end
$var wire 1 "! RW $end
$var wire 1 #! Rdy $end
$var wire 1 $! cs $end
$var wire 1 %! Clk $end
$var wire 1 &! from_SDO $end
$var wire 1 '! Done $end
$var wire 1 (! toSCL $end
$var wire 1 )! toSDA $end
$var wire 1 *! MISO_DR $end
$var wire 1 +! next8bits [7] $end
$var wire 1 ,! next8bits [6] $end
$var wire 1 -! next8bits [5] $end
$var wire 1 .! next8bits [4] $end
$var wire 1 /! next8bits [3] $end
$var wire 1 0! next8bits [2] $end
$var wire 1 1! next8bits [1] $end
$var wire 1 2! next8bits [0] $end
$var wire 1 3! read8bits [7] $end
$var wire 1 4! read8bits [6] $end
$var wire 1 5! read8bits [5] $end
$var wire 1 6! read8bits [4] $end
$var wire 1 7! read8bits [3] $end
$var wire 1 8! read8bits [2] $end
$var wire 1 9! read8bits [1] $end
$var wire 1 :! read8bits [0] $end
$var wire 1 <! hold $end
$var wire 1 =! RWlatch $end
$var integer 32 >! BitIndex $end
$var integer 32 ?! ByteIndex $end
$var wire 1 @! current8bits [7] $end
$var wire 1 A! current8bits [6] $end
$var wire 1 B! current8bits [5] $end
$var wire 1 C! current8bits [4] $end
$var wire 1 D! current8bits [3] $end
$var wire 1 E! current8bits [2] $end
$var wire 1 F! current8bits [1] $end
$var wire 1 G! current8bits [0] $end
$upscope $end
$upscope $end
$enddefinitions $end
#0
x!
x"
1#
1$
1%
x&
x&!
x'
0(
0%!
0)
0*
1+
0,
0-
0.
0/
10
01
02
13
04
05
06
07
18
09
x:
1;
0<
0=
0>
0?
b0 @
1A
1B
1C
1(!
1D
1)!
0E
1F
0G
1H
0I
1J
0K
1L
0M
0+!
1N
1,!
0O
0-!
1P
1.!
0Q
0/!
1R
10!
0S
01!
1T
12!
xU
x3!
xV
x4!
xW
x5!
xX
x6!
xY
x7!
xZ
x8!
x[
x9!
x\
x:!
0]
0^
0'!
1_
1`
1$!
1a
1b
1!!
0c
0"!
1d
1#!
0e
0*!
0f
0y
0z
0{
0|
1}
0~
0(
0%!
1;
1}
#54520
1(
1%!
0d
0#!
1^
1'!
1]
1!
0:
0;
#109040
0(
0%!
#163560
1(
1%!
#218080
0(
0%!
#272600
1(
1%!
#327120
0(
0%!
#381640
1(
1%!
#436160
0(
0%!
#490680
1(
1%!
#545200
0(
0%!
#599720
1(
1%!
#654240
0(
0%!
#708760
1(
1%!
#763280
0(
0%!
#817800
1(
1%!
#872320
0(
0%!
#926840
1(
1%!
#981360
0(
0%!
#1035880
1(
1%!
#1090400
0(
0%!
#1144920
1(
1%!
#1199440
0(
0%!
#1253960
1(
1%!
#1308480
0(
0%!
#1363000
1(
1%!
#1417520
0(
0%!
#1472040
1(
1%!
#1526560
0(
0%!
#1581080
1(
1%!
#1635600
0(
0%!
#1690120
1(
1%!
#1744640
0(
0%!
#1799160
1(
1%!
#1853680
0(
0%!
#1908200
1(
1%!
#1962720
0(
0%!
#2017240
1(
1%!
#2071760
0(
0%!
#2126280
1(
1%!
#2180800
0(
0%!
#2235320
1(
1%!
#2289840
0(
0%!
#2344360
1(
1%!
#2398880
0(
0%!
#2453400
1(
1%!
#2507920
0(
0%!
#2562440
1(
1%!
#2616960
0(
0%!
#2671480
1(
1%!
#2726000
0(
0%!
#2780520
1(
1%!
#2835040
0(
0%!
#2889560
1(
1%!
#2944080
0(
0%!
#2998600
1(
1%!
#3053120
0(
0%!
#3107640
1(
1%!
#3162160
0(
0%!
#3216680
1(
1%!
#3271200
0(
0%!
#3325720
1(
1%!
#3380240
0(
0%!
#3434760
1(
1%!
#3489280
0(
0%!
#3543800
1(
1%!
#3598320
0(
0%!
#3652840
1(
1%!
#3707360
0(
0%!
#3761880
1(
1%!
#3816400
0(
0%!
#3870920
1(
1%!
#3925440
0(
0%!
#3979960
1(
1%!
#4034480
0(
0%!
#4089000
1(
1%!
#4143520
0(
0%!
#4198040
1(
1%!
#4252560
0(
0%!
#4307080
1(
1%!
#4361600
0(
0%!
#4416120
1(
1%!
#4470640
0(
0%!
#4525160
1(
1%!
#4579680
0(
0%!
#4634200
1(
1%!
#4688720
0(
0%!
#4743240
1(
1%!
#4797760
0(
0%!
#4852280
1(
1%!
#4906800
0(
0%!
#4961320
1(
1%!
#5015840
0(
0%!
#5070360
1(
1%!
#5124880
0(
0%!
#5179400
1(
1%!
#5233920
0(
0%!
#5288440
1(
1%!
#5342960
0(
0%!
#5397480
1(
1%!
#5452000
0(
0%!
#5506520
1(
1%!
#5561040
0(
0%!
#5615560
1(
1%!
#5670080
0(
0%!
#5724600
1(
1%!
#5779120
0(
0%!
#5833640
1(
1%!
#5888160
0(
0%!
#5942680
1(
1%!
#5997200
0(
0%!
#6051720
1(
1%!
#6106240
0(
0%!
#6160760
1(
1%!
#6215280
0(
0%!
#6269800
1(
1%!
#6324320
0(
0%!
#6378840
1(
1%!
#6433360
0(
0%!
#6487880
1(
1%!
#6542400
0(
0%!
#6596920
1(
1%!
#6651440
0(
0%!
#6705960
1(
1%!
#6760480
0(
0%!
#6815000
1(
1%!
#6869520
0(
0%!
#6924040
1(
1%!
#6978560
0(
0%!
#7033080
1(
1%!
#7087600
0(
0%!
#7142120
1(
1%!
#7196640
0(
0%!
#7251160
1(
1%!
#7305680
0(
0%!
#7360200
1(
1%!
#7414720
0(
0%!
#7469240
1(
1%!
#7523760
0(
0%!
#7578280
1(
1%!
#7632800
0(
0%!
#7687320
1(
1%!
#7741840
0(
0%!
#7796360
1(
1%!
#7850880
0(
0%!
#7905400
1(
1%!
#7959920
0(
0%!
#8014440
1(
1%!
#8068960
0(
0%!
#8123480
1(
1%!
#8178000
0(
0%!
#8232520
1(
1%!
#8287040
0(
0%!
#8341560
1(
1%!
#8396080
0(
0%!
#8450600
1(
1%!
#8505120
0(
0%!
#8559640
1(
1%!
#8614160
0(
0%!
#8668680
1(
1%!
#8723200
0(
0%!
#8777720
1(
1%!
#8832240
0(
0%!
#8886760
1(
1%!
#8941280
0(
0%!
#8995800
1(
1%!
#9050320
0(
0%!
#9104840
1(
1%!
#9159360
0(
0%!
#9213880
1(
1%!
#9268400
0(
0%!
#9322920
1(
1%!
#9377440
0(
0%!
#9431960
1(
1%!
#9486480
0(
0%!
#9541000
1(
1%!
#9595520
0(
0%!
#9650040
1(
1%!
#9704560
0(
0%!
#9759080
1(
1%!
#9813600
0(
0%!
#9868120
1(
1%!
#9922640
0(
0%!
#9977160
1(
1%!
#10000000
1=
#10031680
0(
0%!
#10086200
1(
1%!
1<
1z
1)
#10140720
0(
0%!
#10195240
1(
1%!
b1 @
0<
0)
#10249760
0(
0%!
#10250000
0=
#10304280
1(
1%!
b10 @
1:
0!
#10358800
0(
0%!
#10413320
1(
1%!
b11 @
#10467840
0(
0%!
#10522360
1(
1%!
b100 @
#10576880
0(
0%!
#10631400
1(
1%!
b101 @
#10685920
0(
0%!
#10740440
1(
1%!
b110 @
#10794960
0(
0%!
#10849480
1(
1%!
b111 @
#10904000
0(
0%!
#10958520
1(
1%!
b1000 @
#11013040
0(
0%!
#11067560
1(
1%!
b1001 @
#11122080
0(
0%!
#11176600
1(
1%!
b1010 @
#11231120
0(
0%!
#11285640
1(
1%!
#11340160
0(
0%!
#11394680
1(
1%!
#11449200
0(
0%!
#11503720
1(
1%!
#11558240
0(
0%!
#11612760
1(
1%!
#11667280
0(
0%!
#11721800
1(
1%!
#11776320
0(
0%!
#11830840
1(
1%!
#11885360
0(
0%!
#11939880
1(
1%!
#11994400
0(
0%!
#12048920
1(
1%!
#12103440
0(
0%!
#12157960
1(
1%!
#12212480
0(
0%!
#12267000
1(
1%!
#12321520
0(
0%!
#12376040
1(
1%!
#12430560
0(
0%!
#12485080
1(
1%!
1!
#12539600
0(
0%!
#12594120
1(
1%!
#12648640
0(
0%!
#12703160
1(
1%!
#12757680
0(
0%!
#12812200
1(
1%!
#12866720
0(
0%!
#12921240
1(
1%!
#12975760
0(
0%!
#13030280
1(
1%!
#13084800
0(
0%!
#13139320
1(
1%!
#13193840
0(
0%!
#13248360
1(
1%!
#13302880
0(
0%!
#13357400
1(
1%!
#13411920
0(
0%!
#13466440
1(
1%!
#13520960
0(
0%!
#13575480
1(
1%!
0!
